{
  "variants": {
    "type=top": {
      "model": "medievaldecorations:block/fishscale_stones_slab_top"
    },
    "type=bottom": {
      "model": "medievaldecorations:block/fishscale_stones_slab"
    },
    "type=double": {
      "model": "medievaldecorations:block/fishscale_stones"
    }
  }
}