{
  "variants": {
    "facing=north": { "model": "medievaldecorations:block/oak_chair" },
    "facing=south": { "model": "medievaldecorations:block/oak_chair", "y": 180},
    "facing=west": { "model": "medievaldecorations:block/oak_chair", "y": 270 },
    "facing=east": { "model": "medievaldecorations:block/oak_chair", "y": 90 }
  }
}