{
  "parent": "minecraft:block/slab_top",
  "textures": {
    "side": "medievaldecorations:block/fishscale_stones",
    "bottom": "medievaldecorations:block/fishscale_stones",
    "top": "medievaldecorations:block/fishscale_stones"
  }
}