{
  "ambientocclusion": false,
  "credit": "Made with Blockbench",
  "textures": {
    "0": "medievaldecorations:block/smooth_oak_table",
    "particle": "medievaldecorations:block/smooth_oak_table"
  },
  "elements": [
    {
      "from": [0, 15, 0],
      "to": [16, 16, 16],
      "faces": {
        "north": {"uv": [0, 7.5, 8, 8], "cullface": "north", "texture": "#0"},
        "east": {"uv": [0, 7.5, 8, 8], "cullface": "east", "texture": "#0"},
        "south": {"uv": [0, 7.5, 8, 8], "cullface": "south", "texture": "#0"},
        "west": {"uv": [0, 7.5, 8, 8], "cullface": "west", "texture": "#0"},
        "up": {"uv": [0, 0, 8, 8], "cullface": "up", "texture": "#0"},
        "down": {"uv": [0, 0, 8, 8],  "texture": "#0"}
      }
    },
    {
      "from": [1, 0, 1],
      "to": [3, 15, 3],
      "faces": {
        "north": {"uv": [8, 0, 9, 7.5], "texture": "#0"},
        "east": {"uv": [8, 0, 9, 7.5], "texture": "#0"},
        "south": {"uv": [8, 0, 9, 7.5], "texture": "#0"},
        "west": {"uv": [8, 0, 9, 7.5], "texture": "#0"},
        "down": {"uv": [8, 0, 9, 1], "cullface": "down", "texture": "#0"}
      }
    },
    {
      "from": [1, 0, 13],
      "to": [3, 15, 15],
      "faces": {
        "north": {"uv": [8, 0, 9, 7.5], "texture": "#0"},
        "east": {"uv": [8, 0, 9, 7.5], "texture": "#0"},
        "south": {"uv": [8, 0, 9, 7.5], "texture": "#0"},
        "west": {"uv": [8, 0, 9, 7.5], "texture": "#0"},
        "down": {"uv": [8, 0, 9, 1], "cullface": "down", "texture": "#0"}
      }
    },
    {
      "from": [13, 0, 13],
      "to": [15, 15, 15],
      "faces": {
        "north": {"uv": [8, 0, 9, 7.5], "texture": "#0"},
        "east": {"uv": [8, 0, 9, 7.5], "texture": "#0"},
        "south": {"uv": [8, 0, 9, 7.5], "texture": "#0"},
        "west": {"uv": [8, 0, 9, 7.5], "texture": "#0"},
        "down": {"uv": [8, 0, 9, 1], "cullface": "down", "texture": "#0"}
      }
    },
    {
      "from": [13, 0, 1],
      "to": [15, 15, 3],
      "faces": {
        "north": {"uv": [8, 0, 9, 7.5], "texture": "#0"},
        "east": {"uv": [8, 0, 9, 7.5], "texture": "#0"},
        "south": {"uv": [8, 0, 9, 7.5], "texture": "#0"},
        "west": {"uv": [8, 0, 9, 7.5], "texture": "#0"},
        "down": {"uv": [8, 0, 9, 1], "cullface": "down", "texture": "#0"}
      }
    },

    {
      "from": [2, 13, 3],
      "to": [2, 15, 13],
      "faces": {
        "east": {"uv": [0, 8, 5, 9], "texture": "#0"},
        "west": {"uv": [0, 8, 5, 9], "texture": "#0"}
      }
    },
    {
      "from": [14, 13, 3],
      "to": [14, 15, 13],
      "faces": {
        "east": {"uv": [0, 8, 5, 9], "texture": "#0"},
        "west": {"uv": [0, 8, 5, 9], "texture": "#0"}
      }
    },
    {
      "from": [3, 13, 2],
      "to": [13, 15, 2],
      "faces": {
        "north": {"uv": [0, 8, 5, 9], "texture": "#0"},
        "south": {"uv": [0, 8, 5, 9], "texture": "#0"}
      }
    },
    {
      "from": [3, 13, 14],
      "to": [13, 15, 14],
      "faces": {
        "north": {"uv": [0, 8, 5, 9], "texture": "#0"},
        "south": {"uv": [0, 8, 5, 9], "texture": "#0"}
      }
    }
  ],
  "display": {
    "thirdperson_righthand": {
      "rotation": [90, 0, 0],
      "translation": [0, -2, -2.25],
      "scale": [0.3, 0.3, 0.3]
    },
    "thirdperson_lefthand": {
      "rotation": [90, 0, 0],
      "translation": [0, -2, -2.25],
      "scale": [0.3, 0.3, 0.3]
    },
    "firstperson_righthand": {
      "rotation": [8, 15, 11],
      "translation": [2.5, 1.25, 0],
      "scale": [0.3, 0.3, 0.3]
    },
    "firstperson_lefthand": {
      "rotation": [8, 15, 11],
      "translation": [2.5, 1.25, 0],
      "scale": [0.3, 0.3, 0.3]
    },
    "ground": {
      "scale": [0.3, 0.3, 0.3]
    },
    "gui": {
      "rotation": [45, 45, 0],
      "translation": [0, -0.5, 0],
      "scale": [0.55, 0.55, 0.55]
    },
    "fixed": {
      "scale": [0.6, 0.6, 0.6]
    }
  },
  "groups": [
    {
      "name": "group",
      "origin": [0, 0, 0],
      "children": [0, 1, 2, 3, 4]
    }, 5, 6, 7, 8]
}