{
  "type": "minecraft:crafting_shaped",
  "pattern": [
    "XXX"
  ],
  "key": {
    "X": {
      "item": "medievaldecorations:fishscale_stones"
    }
  },
  "result": {
    "item": "medievaldecorations:fishscale_stones_slab",
    "count": 6
  }
}