{
  "type": "minecraft:crafting_shaped",
  "pattern": [
    "XYX",
    "XZX",
    "XYX"
  ],
  "key": {
    "X": {
      "item": "minecraft:magenta_dye"
    },
    "Y": {
      "item": "minecraft:paper"
    },
    "Z": {
      "item": "minecraft:clay_ball"
    }
  },
  "result": {
    "item": "medievaldecorations:magenta_striped_wallpaper",
    "count": 16
  }
}