{
  "type": "minecraft:crafting_shaped",
  "pattern": [
    "X  ",
    "XX ",
    "XXX"
  ],
  "key": {
    "X": {
      "item": "medievaldecorations:stacked_pebbles"
    }
  },
  "result": {
    "item": "medievaldecorations:stacked_pebbles_stairs",
    "count": 4
  }
}